{
  "$schema": "http://json-schema.org/draft-07/schema",
  "$id": "http://example.com/example.json",
  "type": "object",
  "title": "The root schema",
  "description": "The root schema comprises the entire JSON document.",
  "default": {},
  "examples": [
    {
      "meta": {
        "pagination": {
          "total": 1243,
          "pages": 63,
          "page": 1,
          "limit": 20,
          "links": {
            "previous": null,
            "current": "https://gorest.co.in/public/v1/users?page=1",
            "next": "https://gorest.co.in/public/v1/users?page=2"
          }
        }
      },
      "data": [
        {
          "id": 1,
          "name": "Sen. Vimal Bhat",
          "email": "vimal_sen_bhat@zieme.com",
          "gender": "female",
          "status": "inactive"
        },
        {
          "id": 2,
          "name": "Gati Sethi",
          "email": "sethi_gati@hartmann-auer.co",
          "gender": "male",
          "status": "active"
        },
        {
          "id": 3,
          "name": "Aasa Nair",
          "email": "aasa_nair@willms.biz",
          "gender": "female",
          "status": "active"
        },
        {
          "id": 4,
          "name": "Bheeshma Varrier",
          "email": "varrier_bheeshma@jones.co",
          "gender": "male",
          "status": "inactive"
        },
        {
          "id": 5,
          "name": "Daiwik Ganaka",
          "email": "daiwik_ganaka@monahan.org",
          "gender": "male",
          "status": "active"
        },
        {
          "id": 6,
          "name": "Jagdish Nehru",
          "email": "nehru_jagdish@lind-conroy.biz",
          "gender": "male",
          "status": "inactive"
        },
        {
          "id": 7,
          "name": "Bandhu Somayaji",
          "email": "bandhu_somayaji@boyer-gulgowski.com",
          "gender": "male",
          "status": "inactive"
        },
        {
          "id": 8,
          "name": "Kannen Sethi",
          "email": "kannen_sethi@hane-effertz.name",
          "gender": "female",
          "status": "inactive"
        },
        {
          "id": 9,
          "name": "Triloki Nath Chaturvedi",
          "email": "triloki_nath_chaturvedi@fritsch.info",
          "gender": "female",
          "status": "active"
        },
        {
          "id": 10,
          "name": "Ekaksh Varrier JD",
          "email": "jd_varrier_ekaksh@baumbach-bartoletti.org",
          "gender": "male",
          "status": "active"
        },
        {
          "id": 11,
          "name": "Mrs. Balachandra Jain",
          "email": "balachandra_jain_mrs@rutherford.com",
          "gender": "female",
          "status": "inactive"
        },
        {
          "id": 12,
          "name": "Ganapati Tandon CPA",
          "email": "tandon_ganapati_cpa@stracke.info",
          "gender": "male",
          "status": "inactive"
        },
        {
          "id": 13,
          "name": "Bhaasvan Panicker",
          "email": "bhaasvan_panicker@dickinson-hegmann.com",
          "gender": "male",
          "status": "inactive"
        },
        {
          "id": 14,
          "name": "Chinmayananda Jain",
          "email": "chinmayananda_jain@toy-kuhn.name",
          "gender": "male",
          "status": "active"
        },
        {
          "id": 15,
          "name": "Atmaja Achari",
          "email": "atmaja_achari@steuber.com",
          "gender": "male",
          "status": "active"
        },
        {
          "id": 16,
          "name": "Kanaka Pillai II",
          "email": "pillai_kanaka_ii@kutch.net",
          "gender": "female",
          "status": "inactive"
        },
        {
          "id": 17,
          "name": "Bhanumati Tandon",
          "email": "bhanumati_tandon@reynolds.org",
          "gender": "female",
          "status": "active"
        },
        {
          "id": 18,
          "name": "Kamlesh Menon",
          "email": "menon_kamlesh@langosh-labadie.net",
          "gender": "male",
          "status": "active"
        },
        {
          "id": 19,
          "name": "Msgr. Sumitra Kocchar",
          "email": "kocchar_sumitra_msgr@ratke-borer.biz",
          "gender": "female",
          "status": "inactive"
        },
        {
          "id": 20,
          "name": "Sharda Pandey",
          "email": "sharda_pandey@schowalter.org",
          "gender": "female",
          "status": "active"
        }
      ]
    }
  ],
  "required": [
    "meta",
    "data"
  ],
  "properties": {
    "meta": {
      "$id": "#/properties/meta",
      "type": "object",
      "title": "The meta schema",
      "description": "An explanation about the purpose of this instance.",
      "default": {},
      "examples": [
        {
          "pagination": {
            "total": 1243,
            "pages": 63,
            "page": 1,
            "limit": 20,
            "links": {
              "previous": null,
              "current": "https://gorest.co.in/public/v1/users?page=1",
              "next": "https://gorest.co.in/public/v1/users?page=2"
            }
          }
        }
      ],
      "required": [
        "pagination"
      ],
      "properties": {
        "pagination": {
          "$id": "#/properties/meta/properties/pagination",
          "type": "object",
          "title": "The pagination schema",
          "description": "An explanation about the purpose of this instance.",
          "default": {},
          "examples": [
            {
              "total": 1243,
              "pages": 63,
              "page": 1,
              "limit": 20,
              "links": {
                "previous": null,
                "current": "https://gorest.co.in/public/v1/users?page=1",
                "next": "https://gorest.co.in/public/v1/users?page=2"
              }
            }
          ],
          "required": [
            "total",
            "pages",
            "page",
            "limit",
            "links"
          ],
          "properties": {
            "total": {
              "$id": "#/properties/meta/properties/pagination/properties/total",
              "type": "integer",
              "title": "The total schema",
              "description": "An explanation about the purpose of this instance.",
              "default": 0,
              "examples": [
                1243
              ]
            },
            "pages": {
              "$id": "#/properties/meta/properties/pagination/properties/pages",
              "type": "integer",
              "title": "The pages schema",
              "description": "An explanation about the purpose of this instance.",
              "default": 0,
              "examples": [
                63
              ]
            },
            "page": {
              "$id": "#/properties/meta/properties/pagination/properties/page",
              "type": "integer",
              "title": "The page schema",
              "description": "An explanation about the purpose of this instance.",
              "default": 0,
              "examples": [
                1
              ]
            },
            "limit": {
              "$id": "#/properties/meta/properties/pagination/properties/limit",
              "type": "integer",
              "title": "The limit schema",
              "description": "An explanation about the purpose of this instance.",
              "default": 0,
              "examples": [
                20
              ]
            },
            "links": {
              "$id": "#/properties/meta/properties/pagination/properties/links",
              "type": "object",
              "title": "The links schema",
              "description": "An explanation about the purpose of this instance.",
              "default": {},
              "examples": [
                {
                  "previous": null,
                  "current": "https://gorest.co.in/public/v1/users?page=1",
                  "next": "https://gorest.co.in/public/v1/users?page=2"
                }
              ],
              "required": [
                "previous",
                "current",
                "next"
              ],
              "properties": {
                "previous": {
                  "$id": "#/properties/meta/properties/pagination/properties/links/properties/previous",
                  "type": "null",
                  "title": "The previous schema",
                  "description": "An explanation about the purpose of this instance.",
                  "default": null,
                  "examples": [
                    null
                  ]
                },
                "current": {
                  "$id": "#/properties/meta/properties/pagination/properties/links/properties/current",
                  "type": "string",
                  "title": "The current schema",
                  "description": "An explanation about the purpose of this instance.",
                  "default": "",
                  "examples": [
                    "https://gorest.co.in/public/v1/users?page=1"
                  ]
                },
                "next": {
                  "$id": "#/properties/meta/properties/pagination/properties/links/properties/next",
                  "type": "string",
                  "title": "The next schema",
                  "description": "An explanation about the purpose of this instance.",
                  "default": "",
                  "examples": [
                    "https://gorest.co.in/public/v1/users?page=2"
                  ]
                }
              },
              "additionalProperties": true
            }
          },
          "additionalProperties": true
        }
      },
      "additionalProperties": true
    },
    "data": {
      "$id": "#/properties/data",
      "type": "array",
      "title": "The data schema",
      "description": "An explanation about the purpose of this instance.",
      "default": [],
      "examples": [
        [
          {
            "id": 1,
            "name": "Sen. Vimal Bhat",
            "email": "vimal_sen_bhat@zieme.com",
            "gender": "female",
            "status": "inactive"
          },
          {
            "id": 2,
            "name": "Gati Sethi",
            "email": "sethi_gati@hartmann-auer.co",
            "gender": "male",
            "status": "active"
          }
        ]
      ],
      "additionalItems": true,
      "items": {
        "$id": "#/properties/data/items",
        "anyOf": [
          {
            "$id": "#/properties/data/items/anyOf/0",
            "type": "object",
            "title": "The first anyOf schema",
            "description": "An explanation about the purpose of this instance.",
            "default": {},
            "examples": [
              {
                "id": 1,
                "name": "Sen. Vimal Bhat",
                "email": "vimal_sen_bhat@zieme.com",
                "gender": "female",
                "status": "inactive"
              }
            ],
            "required": [
              "id",
              "name",
              "email",
              "gender",
              "status"
            ],
            "properties": {
              "id": {
                "$id": "#/properties/data/items/anyOf/0/properties/id",
                "type": "integer",
                "title": "The id schema",
                "description": "An explanation about the purpose of this instance.",
                "default": 0,
                "examples": [
                  1
                ]
              },
              "name": {
                "$id": "#/properties/data/items/anyOf/0/properties/name",
                "type": "string",
                "title": "The name schema",
                "description": "An explanation about the purpose of this instance.",
                "default": "",
                "examples": [
                  "Sen. Vimal Bhat"
                ]
              },
              "email": {
                "$id": "#/properties/data/items/anyOf/0/properties/email",
                "type": "string",
                "title": "The email schema",
                "description": "An explanation about the purpose of this instance.",
                "default": "",
                "examples": [
                  "vimal_sen_bhat@zieme.com"
                ]
              },
              "gender": {
                "$id": "#/properties/data/items/anyOf/0/properties/gender",
                "type": "string",
                "title": "The gender schema",
                "description": "An explanation about the purpose of this instance.",
                "default": "",
                "examples": [
                  "female"
                ]
              },
              "status": {
                "$id": "#/properties/data/items/anyOf/0/properties/status",
                "type": "string",
                "title": "The status schema",
                "description": "An explanation about the purpose of this instance.",
                "default": "",
                "examples": [
                  "inactive"
                ]
              }
            },
            "additionalProperties": true
          }
        ]
      }
    }
  },
  "additionalProperties": true
}